Media Frequencia Total
4.95708891664774
Media Recencia Total
131.793923650541
Media Frequencia Usual
3.824657491818
Media Recencia Usual
135.271853932004
Media Frequencia Elite
17.4030409622149
Media Recencia Elite
93.5698400090775
